^C:\USERS\IMASL\ONEDRIVE\PULPIT\PROGI ROGI\ASD2\TURYSTYKA\TURYSTYKA\RELEASE\TURYSTYKA.OBJ
C:\USERS\IMASL\ONEDRIVE\PULPIT\PROGI ROGI\ASD2\TURYSTYKA\RELEASE\TURYSTYKA.EXE
C:\USERS\IMASL\ONEDRIVE\PULPIT\PROGI ROGI\ASD2\TURYSTYKA\TURYSTYKA\RELEASE\TURYSTYKA.IPDB
C:\USERS\IMASL\ONEDRIVE\PULPIT\PROGI ROGI\ASD2\TURYSTYKA\TURYSTYKA\RELEASE\TURYSTYKA.IOBJ
C:\USERS\IMASL\ONEDRIVE\PULPIT\PROGI ROGI\ASD2\TURYSTYKA\RELEASE\TURYSTYKA.PDB
