^C:\USERS\IMASL\ONEDRIVE\PULPIT\PROGI ROGI\ASD2\TURYSTYKA\TURYSTYKA\X64\DEBUG\TURYSTYKA.OBJ
C:\USERS\IMASL\ONEDRIVE\PULPIT\PROGI ROGI\ASD2\TURYSTYKA\X64\DEBUG\TURYSTYKA.EXE
C:\USERS\IMASL\ONEDRIVE\PULPIT\PROGI ROGI\ASD2\TURYSTYKA\TURYSTYKA\X64\DEBUG\TURYSTYKA.ILK
C:\USERS\IMASL\ONEDRIVE\PULPIT\PROGI ROGI\ASD2\TURYSTYKA\X64\DEBUG\TURYSTYKA.PDB
