^C:\USERS\IMASL\ONEDRIVE\PULPIT\PROGI ROGI\ASD2\TURYSTYKA\TURYSTYKA\TURYSTYKA.CPP
C:\USERS\IMASL\ONEDRIVE\PULPIT\PROGI ROGI\ASD2\TURYSTYKA\TURYSTYKA\DEBUG\VC142.PDB
C:\USERS\IMASL\ONEDRIVE\PULPIT\PROGI ROGI\ASD2\TURYSTYKA\TURYSTYKA\DEBUG\VC142.IDB
C:\USERS\IMASL\ONEDRIVE\PULPIT\PROGI ROGI\ASD2\TURYSTYKA\TURYSTYKA\DEBUG\TURYSTYKA.OBJ
